^C:\USERS\PINOT\ONEDRIVE\DOCUMENTS\PROJETGRAPHE\PROJETGRAPHE\X64\DEBUG\CARC.OBJ|C:\USERS\PINOT\ONEDRIVE\DOCUMENTS\PROJETGRAPHE\PROJETGRAPHE\X64\DEBUG\CELEMENTPARSEUR.OBJ|C:\USERS\PINOT\ONEDRIVE\DOCUMENTS\PROJETGRAPHE\PROJETGRAPHE\X64\DEBUG\CEXEPTION.OBJ|C:\USERS\PINOT\ONEDRIVE\DOCUMENTS\PROJETGRAPHE\PROJETGRAPHE\X64\DEBUG\CGRAPHE.OBJ|C:\USERS\PINOT\ONEDRIVE\DOCUMENTS\PROJETGRAPHE\PROJETGRAPHE\X64\DEBUG\COPERATIONSGRAPHE.OBJ|C:\USERS\PINOT\ONEDRIVE\DOCUMENTS\PROJETGRAPHE\PROJETGRAPHE\X64\DEBUG\CPARSEUR.OBJ|C:\USERS\PINOT\ONEDRIVE\DOCUMENTS\PROJETGRAPHE\PROJETGRAPHE\X64\DEBUG\CSOMMET.OBJ|C:\USERS\PINOT\ONEDRIVE\DOCUMENTS\PROJETGRAPHE\PROJETGRAPHE\X64\DEBUG\MAIN.OBJ
C:\USERS\PINOT\ONEDRIVE\DOCUMENTS\PROJETGRAPHE\X64\DEBUG\PROJETGRAPHE.EXE
C:\USERS\PINOT\ONEDRIVE\DOCUMENTS\PROJETGRAPHE\X64\DEBUG\PROJETGRAPHE.ILK
C:\USERS\PINOT\ONEDRIVE\DOCUMENTS\PROJETGRAPHE\X64\DEBUG\PROJETGRAPHE.PDB
