^C:\USERS\ALLAM\ONEDRIVE\BUREAU\C++\PROJETGRAPHE\PROJETGRAPHE\X64\RELEASE\CARC.OBJ|C:\USERS\ALLAM\ONEDRIVE\BUREAU\C++\PROJETGRAPHE\PROJETGRAPHE\X64\RELEASE\CELEMENTPARSEUR.OBJ|C:\USERS\ALLAM\ONEDRIVE\BUREAU\C++\PROJETGRAPHE\PROJETGRAPHE\X64\RELEASE\CEXEPTION.OBJ|C:\USERS\ALLAM\ONEDRIVE\BUREAU\C++\PROJETGRAPHE\PROJETGRAPHE\X64\RELEASE\CGRAPHE.OBJ|C:\USERS\ALLAM\ONEDRIVE\BUREAU\C++\PROJETGRAPHE\PROJETGRAPHE\X64\RELEASE\COPERATIONSGRAPHE.OBJ|C:\USERS\ALLAM\ONEDRIVE\BUREAU\C++\PROJETGRAPHE\PROJETGRAPHE\X64\RELEASE\CPARSEUR.OBJ|C:\USERS\ALLAM\ONEDRIVE\BUREAU\C++\PROJETGRAPHE\PROJETGRAPHE\X64\RELEASE\CSOMMET.OBJ|C:\USERS\ALLAM\ONEDRIVE\BUREAU\C++\PROJETGRAPHE\PROJETGRAPHE\X64\RELEASE\MAIN.OBJ
/OUT:"C:\USERS\ALLAM\ONEDRIVE\BUREAU\C++\PROJETGRAPHE\X64\RELEASE\PROJETGRAPHE.EXE" /INCREMENTAL:NO /NOLOGO /LIBPATH:"C:\PROGRAM FILES (X86)\VISUAL LEAK DETECTOR\LIB\WIN64" KERNEL32.LIB USER32.LIB GDI32.LIB WINSPOOL.LIB COMDLG32.LIB ADVAPI32.LIB SHELL32.LIB OLE32.LIB OLEAUT32.LIB UUID.LIB ODBC32.LIB ODBCCP32.LIB /MANIFEST /MANIFESTUAC:"level='asInvoker' uiAccess='false'" /manifest:embed /DEBUG /PDB:"C:\USERS\ALLAM\ONEDRIVE\BUREAU\C++\PROJETGRAPHE\X64\RELEASE\PROJETGRAPHE.PDB" /SUBSYSTEM:CONSOLE /OPT:REF /OPT:ICF /LTCG:incremental /TLBID:1 /DYNAMICBASE /NXCOMPAT /IMPLIB:"C:\USERS\ALLAM\ONEDRIVE\BUREAU\C++\PROJETGRAPHE\X64\RELEASE\PROJETGRAPHE.LIB" /MACHINE:X64 X64\RELEASE\CARC.OBJX64\RELEASE\CELEMENTPARSEUR.OBJX64\RELEASE\CEXEPTION.OBJX64\RELEASE\CGRAPHE.OBJX64\RELEASE\COPERATIONSGRAPHE.OBJX64\RELEASE\CPARSEUR.OBJX64\RELEASE\CSOMMET.OBJX64\RELEASE\MAIN.OBJ
^C:\USERS\PINOT\ONEDRIVE\DOCUMENTS\PROJETGRAPHE\PROJETGRAPHE\X64\RELEASE\CARC.OBJ|C:\USERS\PINOT\ONEDRIVE\DOCUMENTS\PROJETGRAPHE\PROJETGRAPHE\X64\RELEASE\CELEMENTPARSEUR.OBJ|C:\USERS\PINOT\ONEDRIVE\DOCUMENTS\PROJETGRAPHE\PROJETGRAPHE\X64\RELEASE\CEXEPTION.OBJ|C:\USERS\PINOT\ONEDRIVE\DOCUMENTS\PROJETGRAPHE\PROJETGRAPHE\X64\RELEASE\CGRAPHE.OBJ|C:\USERS\PINOT\ONEDRIVE\DOCUMENTS\PROJETGRAPHE\PROJETGRAPHE\X64\RELEASE\COPERATIONSGRAPHE.OBJ|C:\USERS\PINOT\ONEDRIVE\DOCUMENTS\PROJETGRAPHE\PROJETGRAPHE\X64\RELEASE\CPARSEUR.OBJ|C:\USERS\PINOT\ONEDRIVE\DOCUMENTS\PROJETGRAPHE\PROJETGRAPHE\X64\RELEASE\CSOMMET.OBJ|C:\USERS\PINOT\ONEDRIVE\DOCUMENTS\PROJETGRAPHE\PROJETGRAPHE\X64\RELEASE\MAIN.OBJ
/OUT:"C:\USERS\PINOT\ONEDRIVE\DOCUMENTS\PROJETGRAPHE\X64\RELEASE\PROJETGRAPHE.EXE" /INCREMENTAL:NO /NOLOGO /LIBPATH:"C:\PROGRAM FILES (X86)\VISUAL LEAK DETECTOR\LIB\WIN64" KERNEL32.LIB USER32.LIB GDI32.LIB WINSPOOL.LIB COMDLG32.LIB ADVAPI32.LIB SHELL32.LIB OLE32.LIB OLEAUT32.LIB UUID.LIB ODBC32.LIB ODBCCP32.LIB /MANIFEST /MANIFESTUAC:"level='asInvoker' uiAccess='false'" /manifest:embed /DEBUG /PDB:"C:\USERS\PINOT\ONEDRIVE\DOCUMENTS\PROJETGRAPHE\X64\RELEASE\PROJETGRAPHE.PDB" /SUBSYSTEM:CONSOLE /OPT:REF /OPT:ICF /LTCG:incremental /TLBID:1 /DYNAMICBASE /NXCOMPAT /IMPLIB:"C:\USERS\PINOT\ONEDRIVE\DOCUMENTS\PROJETGRAPHE\X64\RELEASE\PROJETGRAPHE.LIB" /MACHINE:X64 X64\RELEASE\CARC.OBJX64\RELEASE\CELEMENTPARSEUR.OBJX64\RELEASE\CEXEPTION.OBJX64\RELEASE\CGRAPHE.OBJX64\RELEASE\COPERATIONSGRAPHE.OBJX64\RELEASE\CPARSEUR.OBJX64\RELEASE\CSOMMET.OBJX64\RELEASE\MAIN.OBJ
